[gd_scene load_steps=7 format=2]

[ext_resource path="res://src/objects/sandwich.tscn" type="PackedScene" id=1]
[ext_resource path="res://src/levels/ground_tilemap.tscn" type="PackedScene" id=2]
[ext_resource path="res://src/levels/parallax_background.tscn" type="PackedScene" id=3]
[ext_resource path="res://src/objects/bell.tscn" type="PackedScene" id=4]
[ext_resource path="res://src/actors/troll.tscn" type="PackedScene" id=5]
[ext_resource path="res://src/levels/win_tilemap.tscn" type="PackedScene" id=6]

[node name="Level3" type="Node2D"]

[node name="Bell1" parent="." instance=ExtResource( 4 )]
position = Vector2( 1130.16, 267.521 )

[node name="Bell" parent="." instance=ExtResource( 4 )]
position = Vector2( 2401.73, 452.409 )

[node name="Bell0" parent="." instance=ExtResource( 4 )]
position = Vector2( 976.319, 495.94 )

[node name="Trolls" type="Node" parent="."]

[node name="Troll0" parent="Trolls" instance=ExtResource( 5 )]
position = Vector2( 441.899, 475.744 )

[node name="Troll1" parent="Trolls" instance=ExtResource( 5 )]
position = Vector2( 643.643, 476.266 )

[node name="Troll2" parent="Trolls" instance=ExtResource( 5 )]
position = Vector2( 1380.75, 477.33 )

[node name="Troll4" parent="Trolls" instance=ExtResource( 5 )]
position = Vector2( 1485.24, 127.326 )

[node name="Troll3" parent="Trolls" instance=ExtResource( 5 )]
position = Vector2( 2208.95, 477.939 )

[node name="Troll" parent="Trolls" instance=ExtResource( 5 )]
position = Vector2( 2564.03, 127.943 )

[node name="Troll5" parent="Trolls" instance=ExtResource( 5 )]
position = Vector2( 2663.66, 407.962 )

[node name="Troll6" parent="Trolls" instance=ExtResource( 5 )]
position = Vector2( 3369.14, 477.406 )

[node name="Troll7" parent="Trolls" instance=ExtResource( 5 )]
position = Vector2( 3940.68, 477.316 )

[node name="Troll8" parent="Trolls" instance=ExtResource( 5 )]
position = Vector2( 3861.53, 161.79 )

[node name="TileMap" parent="." instance=ExtResource( 2 )]
tile_data = PoolIntArray( 65514, 1, 0, 65515, 1, 0, 65516, 1, 0, 65517, 1, 0, 65518, 1, 0, 65519, 1, 0, 65520, 1, 0, 65521, 1, 0, 65522, 1, 0, 65523, 1, 0, 65524, 1, 0, 65525, 1, 0, 65526, 1, 0, 65527, 1, 0, 65528, 1, 0, 120, 1, 0, 121, 1, 0, 122, 1, 0, 123, 1, 0, 124, 1, 0, 125, 1, 0, 126, 1, 0, 127, 1, 0, 128, 1, 0, 129, 1, 0, 130, 1, 0, 131, 1, 0, 132, 1, 0, 133, 1, 0, 134, 1, 0, 135, 1, 0, 131050, 1, 0, 131051, 1, 0, 131052, 1, 0, 131053, 1, 0, 131054, 1, 0, 131055, 1, 0, 131056, 1, 0, 131057, 1, 0, 131058, 1, 0, 131059, 1, 0, 131060, 1, 0, 131061, 1, 0, 131062, 1, 0, 131063, 1, 0, 131064, 1, 0, 65656, 1, 0, 65657, 1, 0, 65658, 1, 0, 65659, 1, 0, 65660, 1, 0, 65661, 1, 0, 65662, 1, 0, 65663, 1, 0, 65664, 1, 0, 65665, 1, 0, 65666, 1, 0, 65667, 1, 0, 65668, 1, 0, 65669, 1, 0, 65670, 1, 0, 65671, 1, 0, 196586, 1, 0, 196587, 1, 0, 196588, 1, 0, 196589, 1, 0, 196590, 1, 0, 196591, 1, 0, 196592, 1, 0, 196593, 1, 0, 196594, 1, 0, 196595, 1, 0, 196596, 1, 0, 196597, 1, 0, 196598, 1, 0, 196599, 1, 0, 196600, 1, 0, 131193, 1, 0, 131194, 1, 0, 131195, 1, 0, 131196, 1, 0, 131197, 1, 0, 131198, 1, 0, 131199, 1, 0, 131200, 1, 0, 131201, 1, 0, 131202, 1, 0, 131203, 1, 0, 131204, 1, 0, 131205, 1, 0, 131206, 1, 0, 131207, 1, 0, 262122, 1, 0, 262123, 1, 0, 262124, 1, 0, 262125, 1, 0, 262126, 1, 0, 262127, 1, 0, 262128, 1, 0, 262129, 1, 0, 262130, 1, 0, 262131, 1, 0, 262132, 1, 0, 262133, 1, 0, 262134, 1, 0, 262135, 1, 0, 262136, 1, 0, 196729, 1, 0, 196730, 1, 0, 196731, 1, 0, 196732, 1, 0, 196733, 1, 0, 196734, 1, 0, 196735, 1, 0, 196736, 1, 0, 196737, 1, 0, 196738, 1, 0, 196739, 1, 0, 196740, 1, 0, 196741, 1, 0, 196742, 1, 0, 196743, 1, 0, 327658, 1, 0, 327659, 1, 0, 327660, 1, 0, 327661, 1, 0, 327662, 1, 0, 327663, 1, 0, 327664, 1, 0, 327665, 1, 0, 327666, 1, 0, 327667, 1, 0, 327668, 1, 0, 327669, 1, 0, 327670, 1, 0, 327671, 1, 0, 327672, 1, 0, 262229, 0, 0, 262230, 0, 0, 262265, 1, 0, 262266, 1, 0, 262267, 1, 0, 262268, 1, 0, 262269, 1, 0, 262270, 1, 0, 262271, 1, 0, 262272, 1, 0, 262273, 1, 0, 262274, 1, 0, 262275, 1, 0, 262276, 1, 0, 262277, 1, 0, 262278, 1, 0, 262279, 1, 0, 393194, 1, 0, 393195, 1, 0, 393196, 1, 0, 393197, 1, 0, 393198, 1, 0, 393199, 1, 0, 393200, 1, 0, 393201, 1, 0, 393202, 1, 0, 393203, 1, 0, 393204, 1, 0, 393205, 1, 0, 393206, 1, 0, 393207, 1, 0, 393208, 1, 0, 327727, 2, 0, 327728, 0, 0, 327729, 0, 0, 327734, 0, 0, 327735, 0, 0, 327798, 2, 0, 327799, 0, 0, 327800, 0, 0, 327801, 1, 0, 327802, 1, 0, 327803, 1, 0, 327804, 1, 0, 327805, 1, 0, 327806, 1, 0, 327807, 1, 0, 327808, 1, 0, 327809, 1, 0, 327810, 1, 0, 327811, 1, 0, 327812, 1, 0, 327813, 1, 0, 327814, 1, 0, 327815, 1, 0, 458730, 1, 0, 458731, 1, 0, 458732, 1, 0, 458733, 1, 0, 458734, 1, 0, 458735, 1, 0, 458736, 1, 0, 458737, 1, 0, 458738, 1, 0, 458739, 1, 0, 458740, 1, 0, 458741, 1, 0, 458742, 1, 0, 458743, 1, 0, 458744, 1, 0, 393262, 2, 0, 393263, 4, 0, 393338, 1, 0, 393339, 1, 0, 393340, 1, 0, 393341, 1, 0, 393342, 1, 0, 393343, 1, 0, 393344, 1, 0, 393345, 1, 0, 393346, 1, 0, 393347, 1, 0, 393348, 1, 0, 393349, 1, 0, 393350, 1, 0, 393351, 1, 0, 524266, 1, 0, 524267, 1, 0, 524268, 1, 0, 524269, 1, 0, 524270, 1, 0, 524271, 1, 0, 524272, 1, 0, 524273, 1, 0, 524274, 1, 0, 524275, 1, 0, 524276, 1, 0, 524277, 1, 0, 524278, 1, 0, 524279, 1, 0, 524280, 1, 0, 458759, 2, 0, 458760, 0, 0, 458761, 0, 0, 458762, 0, 0, 458763, 0, 0, 458764, 0, 0, 458765, 0, 0, 458786, 2, 0, 458787, 0, 0, 458788, 0, 0, 458789, 0, 0, 458790, 0, 0, 458791, 0, 0, 458792, 0, 0, 458793, 0, 0, 458794, 0, 0, 458795, 0, 0, 458796, 0, 0, 458797, 0, 0, 458798, 4, 0, 458822, 0, 0, 458823, 0, 0, 458824, 0, 0, 458825, 0, 0, 458826, 0, 0, 458827, 0, 0, 458828, 0, 0, 458829, 0, 0, 458830, 0, 0, 458845, 0, 0, 458846, 0, 0, 458847, 0, 0, 458848, 3, 0, 458875, 1, 0, 458876, 1, 0, 458877, 1, 0, 458878, 1, 0, 458879, 1, 0, 458880, 1, 0, 458881, 1, 0, 458882, 1, 0, 458883, 1, 0, 458884, 1, 0, 458885, 1, 0, 458886, 1, 0, 458887, 1, 0, 589802, 1, 0, 589803, 1, 0, 589804, 1, 0, 589805, 1, 0, 589806, 1, 0, 589807, 1, 0, 589808, 1, 0, 589809, 1, 0, 589810, 1, 0, 589811, 1, 0, 589812, 1, 0, 589813, 1, 0, 589814, 1, 0, 589815, 1, 0, 589816, 1, 0, 524294, 2, 0, 524295, 4, 0, 524318, 3, 0, 524321, 2, 0, 524322, 4, 0, 524349, 0, 0, 524350, 0, 0, 524351, 0, 0, 524352, 0, 0, 524393, 2, 0, 524394, 0, 0, 524395, 0, 0, 524396, 0, 0, 524397, 0, 0, 524398, 0, 0, 524399, 0, 0, 524400, 3, 0, 524413, 1, 0, 524414, 1, 0, 524415, 1, 0, 524416, 1, 0, 524417, 1, 0, 524418, 1, 0, 524419, 1, 0, 524420, 1, 0, 524421, 1, 0, 524422, 1, 0, 524423, 1, 0, 655338, 1, 0, 655339, 1, 0, 655340, 1, 0, 655341, 1, 0, 655342, 1, 0, 655343, 1, 0, 655344, 1, 0, 655345, 1, 0, 655346, 1, 0, 655347, 1, 0, 655348, 1, 0, 655349, 1, 0, 655350, 1, 0, 655351, 1, 0, 655352, 1, 0, 589829, 2, 0, 589830, 4, 0, 589852, 0, 0, 589853, 0, 0, 589854, 0, 0, 589855, 0, 0, 589856, 0, 0, 589857, 4, 0, 589928, 2, 0, 589929, 4, 0, 589936, 5, 0, 589937, 0, 0, 589938, 3, 0, 589949, 1, 0, 589950, 1, 0, 589951, 1, 0, 589952, 1, 0, 589953, 1, 0, 589954, 1, 0, 589955, 1, 0, 589956, 1, 0, 589957, 1, 0, 589958, 1, 0, 589959, 1, 0, 720874, 1, 0, 720875, 1, 0, 720876, 1, 0, 720877, 1, 0, 720878, 1, 0, 720879, 1, 0, 720880, 1, 0, 720881, 1, 0, 720882, 1, 0, 720883, 1, 0, 720884, 1, 0, 720885, 1, 0, 720886, 1, 0, 720887, 1, 0, 720888, 1, 0, 655364, 2, 0, 655365, 4, 0, 655445, 2, 0, 655446, 0, 0, 655447, 0, 0, 655448, 0, 0, 655474, 5, 0, 655475, 3, 0, 655485, 1, 0, 655486, 1, 0, 655487, 1, 0, 655488, 1, 0, 655489, 1, 0, 655490, 1, 0, 655491, 1, 0, 655492, 1, 0, 655493, 1, 0, 655494, 1, 0, 655495, 1, 0, 786410, 1, 0, 786411, 1, 0, 786412, 1, 0, 786413, 1, 0, 786414, 1, 0, 786415, 1, 0, 786416, 1, 0, 786417, 1, 0, 786418, 1, 0, 786419, 1, 0, 786420, 1, 0, 786421, 1, 0, 786422, 1, 0, 786423, 1, 0, 786424, 1, 0, 720897, 0, 0, 720898, 0, 0, 720899, 0, 0, 720900, 4, 0, 720950, 0, 0, 720951, 0, 0, 720952, 0, 0, 720980, 2, 0, 720981, 4, 0, 720994, 3, 0, 721011, 5, 0, 721012, 0, 0, 721013, 0, 0, 721014, 0, 0, 721021, 1, 0, 721022, 1, 0, 721023, 1, 0, 721024, 1, 0, 721025, 1, 0, 721026, 1, 0, 721027, 1, 0, 721028, 1, 0, 721029, 1, 0, 721030, 1, 0, 721031, 1, 0, 851946, 1, 0, 851947, 1, 0, 851948, 1, 0, 851949, 1, 0, 851950, 1, 0, 851951, 1, 0, 851952, 1, 0, 851953, 1, 0, 851954, 1, 0, 851955, 1, 0, 851956, 1, 0, 851957, 1, 0, 851958, 1, 0, 851959, 1, 0, 851960, 1, 0, 786515, 2, 0, 786516, 4, 0, 786530, 5, 0, 786531, 3, 0, 786557, 1, 0, 786558, 1, 0, 786559, 1, 0, 786560, 1, 0, 786561, 1, 0, 786562, 1, 0, 786563, 1, 0, 786564, 1, 0, 786565, 1, 0, 786566, 1, 0, 786567, 1, 0, 917482, 1, 0, 917483, 1, 0, 917484, 1, 0, 917485, 1, 0, 917486, 1, 0, 917487, 1, 0, 917488, 1, 0, 917489, 1, 0, 917490, 1, 0, 917491, 1, 0, 917492, 1, 0, 917493, 1, 0, 917494, 1, 0, 917495, 1, 0, 917496, 1, 0, 852050, 2, 0, 852051, 4, 0, 852067, 5, 0, 852068, 3, 0, 852092, 2, 0, 852093, 1, 0, 852094, 1, 0, 852095, 1, 0, 852096, 1, 0, 852097, 1, 0, 852098, 1, 0, 852099, 1, 0, 852100, 1, 0, 852101, 1, 0, 852102, 1, 0, 852103, 1, 0, 983018, 1, 0, 983019, 1, 0, 983020, 1, 0, 983021, 1, 0, 983022, 1, 0, 983023, 1, 0, 983024, 1, 0, 983025, 1, 0, 983026, 1, 0, 983027, 1, 0, 983028, 1, 0, 983029, 1, 0, 983030, 1, 0, 983031, 1, 0, 983032, 1, 0, 983033, 0, 0, 983034, 0, 0, 983035, 0, 0, 983036, 3, 0, 917551, 0, 0, 917552, 0, 0, 917553, 0, 0, 917585, 2, 0, 917586, 4, 0, 917604, 5, 0, 917605, 3, 0, 917627, 2, 0, 917628, 4, 0, 917629, 1, 0, 917630, 1, 0, 917631, 1, 0, 917632, 1, 0, 917633, 1, 0, 917634, 1, 0, 917635, 1, 0, 917636, 1, 0, 917637, 1, 0, 917638, 1, 0, 917639, 1, 0, 1048554, 1, 0, 1048555, 1, 0, 1048556, 1, 0, 1048557, 1, 0, 1048558, 1, 0, 1048559, 1, 0, 1048560, 1, 0, 1048561, 1, 0, 1048562, 1, 0, 1048563, 1, 0, 1048564, 1, 0, 1048565, 1, 0, 1048566, 1, 0, 1048567, 1, 0, 1048568, 1, 0, 1048569, 1, 0, 1048570, 1, 0, 1048571, 1, 0, 1048572, 5, 0, 1048573, 3, 0, 983106, 2, 0, 983107, 0, 0, 983108, 0, 0, 983109, 0, 0, 983110, 0, 0, 983111, 0, 0, 983112, 0, 0, 983113, 0, 0, 983114, 0, 0, 983115, 0, 0, 983116, 0, 0, 983117, 0, 0, 983118, 0, 0, 983119, 0, 0, 983120, 0, 0, 983121, 4, 0, 983141, 5, 0, 983142, 3, 0, 983163, 1, 0, 983164, 1, 0, 983165, 1, 0, 983166, 1, 0, 983167, 1, 0, 983168, 1, 0, 983169, 1, 0, 983170, 1, 0, 983171, 1, 0, 983172, 1, 0, 983173, 1, 0, 983174, 1, 0, 983175, 1, 0, 1114090, 1, 0, 1114091, 1, 0, 1114092, 1, 0, 1114093, 1, 0, 1114094, 1, 0, 1114095, 1, 0, 1114096, 1, 0, 1114097, 1, 0, 1114098, 1, 0, 1114099, 1, 0, 1114100, 1, 0, 1114101, 1, 0, 1114102, 1, 0, 1114103, 1, 0, 1114104, 1, 0, 1114105, 1, 0, 1114106, 1, 0, 1114107, 1, 0, 1114108, 1, 0, 1114109, 5, 0, 1114110, 3, 0, 1048583, 2, 0, 1048584, 0, 0, 1048585, 3, 0, 1048596, 2, 0, 1048597, 0, 0, 1048598, 0, 0, 1048599, 0, 0, 1048600, 0, 0, 1048601, 0, 0, 1048602, 0, 0, 1048603, 0, 0, 1048604, 0, 0, 1048605, 0, 0, 1048606, 0, 0, 1048607, 3, 0, 1048641, 2, 0, 1048642, 4, 0, 1048678, 5, 0, 1048679, 3, 0, 1048699, 1, 0, 1048700, 1, 0, 1048701, 1, 0, 1048702, 1, 0, 1048703, 1, 0, 1048704, 1, 0, 1048705, 1, 0, 1048706, 1, 0, 1048707, 1, 0, 1048708, 1, 0, 1048709, 1, 0, 1048710, 1, 0, 1048711, 1, 0, 1179626, 1, 0, 1179627, 1, 0, 1179628, 1, 0, 1179629, 1, 0, 1179630, 1, 0, 1179631, 1, 0, 1179632, 1, 0, 1179633, 1, 0, 1179634, 1, 0, 1179635, 1, 0, 1179636, 1, 0, 1179637, 1, 0, 1179638, 1, 0, 1179639, 1, 0, 1179640, 1, 0, 1179641, 1, 0, 1179642, 1, 0, 1179643, 1, 0, 1179644, 1, 0, 1179645, 1, 0, 1179646, 5, 0, 1179647, 0, 0, 1114112, 0, 0, 1114113, 0, 0, 1114114, 0, 0, 1114115, 0, 0, 1114116, 0, 0, 1114117, 0, 0, 1114118, 0, 0, 1114119, 0, 0, 1114120, 0, 0, 1114121, 0, 0, 1114122, 0, 0, 1114123, 0, 0, 1114124, 0, 0, 1114125, 0, 0, 1114126, 0, 0, 1114127, 0, 0, 1114128, 0, 0, 1114129, 0, 0, 1114130, 0, 0, 1114131, 0, 0, 1114132, 0, 0, 1114133, 0, 0, 1114134, 0, 0, 1114135, 0, 0, 1114136, 0, 0, 1114137, 0, 0, 1114138, 0, 0, 1114139, 0, 0, 1114140, 0, 0, 1114141, 0, 0, 1114142, 0, 0, 1114143, 0, 0, 1114144, 0, 0, 1114145, 0, 0, 1114146, 0, 0, 1114147, 0, 0, 1114148, 0, 0, 1114149, 0, 0, 1114150, 0, 0, 1114151, 0, 0, 1114152, 0, 0, 1114153, 4, 0, 1114154, 0, 0, 1114155, 0, 0, 1114156, 0, 0, 1114157, 0, 0, 1114158, 0, 0, 1114159, 0, 0, 1114160, 0, 0, 1114161, 0, 0, 1114162, 0, 0, 1114163, 0, 0, 1114164, 0, 0, 1114165, 0, 0, 1114166, 0, 0, 1114167, 0, 0, 1114168, 0, 0, 1114169, 0, 0, 1114170, 0, 0, 1114171, 0, 0, 1114172, 0, 0, 1114173, 0, 0, 1114174, 0, 0, 1114175, 0, 0, 1114176, 0, 0, 1114177, 4, 0, 1114178, 0, 0, 1114179, 0, 0, 1114180, 0, 0, 1114181, 0, 0, 1114182, 0, 0, 1114183, 0, 0, 1114184, 0, 0, 1114185, 0, 0, 1114186, 0, 0, 1114187, 0, 0, 1114188, 0, 0, 1114189, 0, 0, 1114190, 0, 0, 1114191, 0, 0, 1114192, 0, 0, 1114193, 0, 0, 1114194, 0, 0, 1114195, 0, 0, 1114196, 0, 0, 1114197, 0, 0, 1114198, 0, 0, 1114199, 0, 0, 1114200, 0, 0, 1114201, 0, 0, 1114202, 0, 0, 1114203, 0, 0, 1114204, 0, 0, 1114205, 0, 0, 1114206, 0, 0, 1114207, 0, 0, 1114208, 0, 0, 1114209, 0, 0, 1114210, 0, 0, 1114211, 0, 0, 1114212, 0, 0, 1114213, 0, 0, 1114214, 0, 0, 1114215, 0, 0, 1114216, 0, 0, 1114217, 0, 0, 1114218, 0, 0, 1114219, 0, 0, 1114220, 0, 0, 1114221, 0, 0, 1114222, 0, 0, 1114223, 0, 0, 1114224, 0, 0, 1114225, 0, 0, 1114226, 0, 0, 1114227, 0, 0, 1114228, 0, 0, 1114229, 0, 0, 1114230, 0, 0, 1114231, 0, 0, 1114232, 0, 0, 1114233, 1, 0, 1114234, 1, 0, 1114235, 1, 0, 1114236, 1, 0, 1114237, 1, 0, 1114238, 1, 0, 1114239, 1, 0, 1114240, 1, 0, 1114241, 1, 0, 1114242, 1, 0, 1114243, 1, 0, 1114244, 1, 0, 1114245, 1, 0, 1114246, 1, 0, 1114247, 1, 0 )

[node name="WinTileMap" parent="." instance=ExtResource( 6 )]
tile_data = PoolIntArray( 120, 1, 0, 65656, 0, 0, 131192, 0, 0, 196728, 0, 0, 262264, 0, 0 )

[node name="ParallaxBackground" parent="." instance=ExtResource( 3 )]

[node name="Sandwiches" type="Node" parent="."]

[node name="Sandwich0" parent="Sandwiches" instance=ExtResource( 1 )]
position = Vector2( 573.869, 519.223 )

[node name="Sandwich1" parent="Sandwiches" instance=ExtResource( 1 )]
position = Vector2( 451.642, 520.662 )

[node name="Sandwich2" parent="Sandwiches" instance=ExtResource( 1 )]
position = Vector2( 1303.27, 184.875 )

[node name="Sandwich3" parent="Sandwiches" instance=ExtResource( 1 )]
position = Vector2( 2198.23, 513.781 )

[node name="Sandwich" parent="Sandwiches" instance=ExtResource( 1 )]
position = Vector2( 1700.58, 446.496 )

[node name="Sandwich4" parent="Sandwiches" instance=ExtResource( 1 )]
position = Vector2( 1938.81, 347.607 )

[node name="Sandwich5" parent="Sandwiches" instance=ExtResource( 1 )]
position = Vector2( 1924.84, 130.752 )

[node name="Sandwich6" parent="Sandwiches" instance=ExtResource( 1 )]
position = Vector2( 1074.8, 275.772 )

[node name="Sandwich7" parent="Sandwiches" instance=ExtResource( 1 )]
position = Vector2( 3020.58, 99.3589 )

[node name="Sandwich8" parent="Sandwiches" instance=ExtResource( 1 )]
position = Vector2( 4160.62, 462.448 )

[node name="Bell2" parent="." instance=ExtResource( 4 )]
position = Vector2( 1023.49, 264.965 )

[node name="Bell3" parent="." instance=ExtResource( 4 )]
position = Vector2( 2698.32, 186.676 )

[node name="Bell4" parent="." instance=ExtResource( 4 )]
position = Vector2( 516.188, 513.36 )

[node name="Bell5" parent="." instance=ExtResource( 4 )]
position = Vector2( 3321.55, 203.134 )

[node name="Bell6" parent="." instance=ExtResource( 4 )]
position = Vector2( 3701.47, 531.591 )

[node name="Bell7" parent="." instance=ExtResource( 4 )]
position = Vector2( 4159.68, 541.491 )
