[gd_scene load_steps=6 format=2]

[ext_resource path="res://assets/art/sandwich.png" type="Texture" id=1]
[ext_resource path="res://assets/theme/fonts/HildaHand-Regular.ttf" type="DynamicFontData" id=2]
[ext_resource path="res://assets/art/counter_bg.png" type="Texture" id=3]

[sub_resource type="DynamicFont" id=1]
size = 48
font_data = ExtResource( 2 )

[sub_resource type="DynamicFont" id=2]
size = 32
font_data = ExtResource( 2 )

[node name="Level0" type="Button"]
margin_right = 150.0
margin_bottom = 54.0
rect_min_size = Vector2( 150, 0 )
size_flags_horizontal = 4
custom_fonts/font = SubResource( 1 )
text = "0"
__meta__ = {
"_edit_use_anchors_": false
}

[node name="SandwichCtr" type="NinePatchRect" parent="."]
margin_left = 1.0
margin_top = 58.0
margin_right = 101.0
margin_bottom = 122.0
rect_min_size = Vector2( 150, 0 )
texture = ExtResource( 3 )
__meta__ = {
"_edit_use_anchors_": false
}

[node name="Icon" type="TextureRect" parent="SandwichCtr"]
margin_right = 64.0
margin_bottom = 64.0
texture = ExtResource( 1 )
__meta__ = {
"_edit_use_anchors_": false
}

[node name="Count" type="Label" parent="SandwichCtr"]
margin_left = 80.0
margin_top = 16.0
margin_right = 117.0
margin_bottom = 48.0
custom_fonts/font = SubResource( 2 )
custom_colors/font_color = Color( 1, 1, 1, 1 )
text = "6/7"
__meta__ = {
"_edit_use_anchors_": false
}
