[gd_scene load_steps=2 format=2]

[ext_resource path="res://src/user_interface/pause_menu.tscn" type="PackedScene" id=1]

[node name="QuitMenu" instance=ExtResource( 1 )]

[node name="Label" parent="VBoxContainer" index="0"]
margin_left = 458.0
margin_right = 622.0
text = "Game Over"

[node name="ResumeButton" parent="VBoxContainer" index="1"]
disabled = true
